([('arduino_web_server.exe',
   'D:\\softwares\\BlocklyDuino-gh-pages\\build\\arduino_web_server\\arduino_web_server.exe',
   'EXECUTABLE'),
  ('arduino_web_server.exe.manifest',
   'D:\\softwares\\BlocklyDuino-gh-pages\\build\\arduino_web_server\\arduino_web_server.exe.manifest',
   'BINARY'),
  (u'Microsoft.VC90.CRT.manifest',
   u'C:\\WINDOWS\\WinSxS\\Manifests\\amd64_microsoft.vc90.crt_1fc8b3b9a1e18e3b_9.0.30729.9415_none_08e0c10ba840a28a.manifest',
   'BINARY'),
  (u'msvcr90.dll',
   u'C:\\WINDOWS\\WinSxS\\amd64_microsoft.vc90.crt_1fc8b3b9a1e18e3b_9.0.30729.9415_none_08e0c10ba840a28a\\msvcr90.dll',
   'BINARY'),
  (u'msvcp90.dll',
   u'C:\\WINDOWS\\WinSxS\\amd64_microsoft.vc90.crt_1fc8b3b9a1e18e3b_9.0.30729.9415_none_08e0c10ba840a28a\\msvcp90.dll',
   'BINARY'),
  (u'msvcm90.dll',
   u'C:\\WINDOWS\\WinSxS\\amd64_microsoft.vc90.crt_1fc8b3b9a1e18e3b_9.0.30729.9415_none_08e0c10ba840a28a\\msvcm90.dll',
   'BINARY'),
  ('python27.dll', 'C:\\WINDOWS\\system32\\python27.dll', 'BINARY'),
  ('unicodedata', 'c:\\python27\\DLLs\\unicodedata.pyd', 'EXTENSION'),
  ('bz2', 'c:\\python27\\DLLs\\bz2.pyd', 'EXTENSION'),
  ('_hashlib', 'c:\\python27\\DLLs\\_hashlib.pyd', 'EXTENSION'),
  ('_ssl', 'c:\\python27\\DLLs\\_ssl.pyd', 'EXTENSION'),
  ('_socket', 'c:\\python27\\DLLs\\_socket.pyd', 'EXTENSION'),
  ('select', 'c:\\python27\\DLLs\\select.pyd', 'EXTENSION'),
  ('pyexpat', 'c:\\python27\\DLLs\\pyexpat.pyd', 'EXTENSION'),
  ('_ctypes', 'c:\\python27\\DLLs\\_ctypes.pyd', 'EXTENSION'),
  ('Include\\pyconfig.h', 'c:\\python27\\Include\\pyconfig.h', 'DATA')],)
